,,,,,Scoring,Scoring,Scoring,,,Goals,Goals,Goals,Goals,Assists,Assists,Assists,,,Ice Time,Ice Time,Point Shares,Point Shares,Point Shares,,,,,
Rk,Player,Age,Pos,GP,G,A,PTS,+/-,PIM,EV,PP,SH,GW,EV,PP,SH,S,S%,TOI,ATOI,OPS,DPS,PS,BLK,HIT,FOW,FOL,FO%
1,Aleksander Barkov,23,C,82,35,61,96,-3,8,22,13,0,5,42,18,1,206,17.0,1833,22:21,7.9,2.1,10.0,61,28,1041,898,53.7
2,Nick Bjugstad,26,C,32,5,7,12,2,16,4,1,0,1,5,2,0,60,8.3,464,14:30,0.4,0.6,1.0,18,44,103,99,51.0
3,Henrik Borgström,21,C,50,8,10,18,-14,4,5,3,0,0,6,4,0,54,14.8,600,12:00,0.9,0.2,1.1,12,11,165,240,40.7
4,Derick Brassard,31,C,10,1,3,4,-6,2,1,0,0,0,2,1,0,16,6.3,153,15:17,0.1,0.0,0.0,0,13,14,17,45.2
5,Troy Brouwer,33,RW,75,12,9,21,-6,47,11,0,1,1,9,0,0,86,14.0,952,12:41,0.6,0.9,1.5,38,177,19,32,37.3
6,Josh Brown,25,D,37,1,1,2,-3,28,1,0,0,0,1,0,0,28,3.6,492,13:18,-0.3,0.8,0.5,31,80,0,0,
7,Evgenii Dadonov,29,RW,82,28,42,70,-6,8,20,8,0,4,33,9,0,195,14.4,1506,18:22,5.6,1.6,7.1,42,33,2,3,40.0
8,Aaron Ekblad,22,D,82,13,24,37,1,47,8,5,0,1,19,5,0,180,7.2,1939,23:39,2.6,4.2,6.8,88,114,0,0,
9,Anthony Greco,25,RW,1,0,0,0,-3,0,0,0,0,0,0,0,0,2,0.0,10,9:30,0.0,-0.1,-0.1,0,0,0,0,
10,Micheal Haley,32,C,24,1,2,3,-2,30,1,0,0,0,2,0,0,20,5.0,180,7:31,-0.1,0.1,0.0,6,44,12,12,50.0
11,Jayce Hawryluk,23,C,42,7,5,12,-8,16,7,0,0,0,4,1,0,35,20.0,396,9:26,0.8,0.2,1.0,25,101,14,5,73.7
12,Mike Hoffman,29,C,82,36,34,70,-24,30,19,17,0,6,16,18,0,253,14.2,1463,17:50,6.5,0.8,7.3,26,42,13,25,34.2
13,Jonathan Huberdeau,25,C,82,30,62,92,-14,40,19,11,0,5,39,23,0,226,13.3,1546,18:51,7.8,1.3,9.1,45,57,12,7,63.2
14,Dryden Hunt,23,LW,31,3,7,10,0,8,3,0,0,0,7,0,0,53,5.7,343,11:04,0.3,0.4,0.7,9,65,0,3,0.0
15,Michael Hutchinson,28,G,4,0,0,0,0,0,0,0,0,0,0,0,0,0,,201,50:19,0.0,0.0,-0.2,0,0,0,0,
16,Brady Keeper,22,D,1,0,0,0,1,0,0,0,0,0,0,0,0,1,0.0,13,12:40,0.0,0.1,0.1,1,2,0,0,
17,Bogdan Kiselevich,28,D,32,0,8,8,-3,12,0,0,0,0,8,0,0,14,0.0,475,14:51,0.2,0.8,1.0,21,49,0,0,
18,Juho Lammikko,23,RW,40,0,6,6,-7,6,0,0,0,0,5,0,1,39,0.0,437,10:56,-0.6,0.3,-0.4,21,45,142,190,42.8
19,Roberto Luongo,39,G,43,0,1,1,0,0,0,0,0,0,0,1,0,0,,2347,54:34,0.0,0.0,5.3,0,0,0,0,
20,Jacob MacDonald,25,D,2,1,0,1,1,0,1,0,0,0,0,0,0,1,100.0,24,12:03,0.2,0.1,0.3,1,1,0,0,
21,Derek MacKenzie,37,C,1,0,0,0,0,0,0,0,0,0,0,0,0,0,,3,2:43,0.0,0.0,0.0,0,0,2,1,66.7
22,Denis Malgin,22,C,50,7,9,16,-10,14,7,0,0,0,8,1,0,66,10.6,644,12:53,0.5,0.4,0.9,21,40,36,56,39.1
23,Maxim Mamin,24,C,7,0,0,0,-2,5,0,0,0,0,0,0,0,8,0.0,51,7:21,-0.1,0.0,-0.2,1,10,0,1,0.0
24,Mike Matheson,24,D,75,8,19,27,-24,44,8,0,0,2,11,6,2,129,6.2,1674,22:19,1.4,1.8,3.2,132,63,0,1,0.0
25,Jared McCann,22,C,46,8,10,18,-9,18,6,1,1,1,8,2,0,78,10.3,647,14:04,0.8,0.4,1.2,21,45,192,229,45.6
26,Ian McCoshen,23,D,19,1,1,2,-2,8,1,0,0,0,1,0,0,15,6.7,253,13:19,0.0,0.4,0.4,13,41,0,0,
27,Jamie McGinn,30,LW,19,4,3,7,-5,6,3,1,0,1,3,0,0,23,17.4,203,10:41,0.5,0.1,0.6,3,34,1,0,100.0
28,Sam Montembeault,22,G,11,0,1,1,0,0,0,0,0,0,0,1,0,0,,591,53:46,0.0,0.0,1.1,0,0,0,0,
29,Alexander Petrovic,26,D,26,0,1,1,-8,24,0,0,0,0,1,0,0,40,0.0,452,17:23,-0.5,0.4,-0.1,42,86,0,0,
30,Mark Pysyk,27,D,70,1,10,11,-1,26,1,0,0,0,9,0,1,64,1.6,1279,18:16,-0.4,2.7,2.3,89,133,0,0,
31,James Reimer,30,G,36,0,0,0,0,0,0,0,0,0,0,0,0,0,,1805,50:09,0.0,0.0,4.2,0,0,0,0,
32,Colton Sceviour,29,C,59,5,10,15,-2,15,5,0,0,0,9,1,0,116,4.3,725,12:18,0.0,0.8,0.8,58,89,39,71,35.5
33,Riley Sheahan,27,C,33,2,8,10,-2,4,2,0,0,0,8,0,0,50,4.0,484,14:39,-0.2,0.5,0.3,18,22,206,169,54.9
34,Riley Stillman,20,D,1,0,0,0,0,2,0,0,0,0,0,0,0,1,0.0,11,11:22,0.0,0.0,0.0,0,5,0,0,
35,Vincent Trocheck,25,C,55,10,24,34,-9,54,6,3,1,1,14,10,0,158,6.3,1081,19:40,1.4,0.9,2.3,42,112,498,463,51.8
36,Frank Vatrano,24,LW,81,24,15,39,-10,38,22,2,0,1,9,6,0,208,11.5,1188,14:40,3.0,1.0,4.0,74,139,15,23,39.5
37,MacKenzie Weegar,25,D,64,4,11,15,-3,64,4,0,0,2,10,1,0,79,5.1,1086,16:58,0.6,2.1,2.7,103,127,1,0,100.0
38,Chris Wideman,29,D,1,0,0,0,-1,2,0,0,0,0,0,0,0,2,0.0,12,11:53,0.0,-0.1,-0.1,0,2,0,0,
39,Keith Yandle,32,D,82,9,53,62,-17,50,2,7,0,2,21,32,0,199,4.5,1840,22:27,4.8,2.7,7.5,76,47,0,0,
,Team Total,,,82,264,457,721,-199,676,189,72,3,33,310,142,5,2705,9.8,,,44.6,28.5,83.5,1138,1901,2527,2545,49.8