,,,,,Scoring,Scoring,Scoring,,,Goals,Goals,Goals,Goals,Assists,Assists,Assists,,,Ice Time,Ice Time,Point Shares,Point Shares,Point Shares,,,,,
Rk,Player,Age,Pos,GP,G,A,PTS,+/-,PIM,EV,PP,SH,GW,EV,PP,SH,S,S%,TOI,ATOI,OPS,DPS,PS,BLK,HIT,FOW,FOL,FO%
1,Nicolas Aube-Kubel,22,RW,9,0,0,0,1,0,0,0,0,0,0,0,0,2,0.0,50,5:35,-0.1,0.1,0.0,0,14,0,0,
2,Justin Bailey,23,RW,11,0,1,1,0,2,0,0,0,0,1,0,0,5,0.0,63,5:44,-0.1,0.1,0.0,5,9,0,0,
3,Sean Couturier,26,C,80,33,43,76,2,34,24,8,1,5,34,9,0,223,14.8,1770,22:08,5.9,2.0,7.8,60,40,755,568,57.1
4,Brian Elliott,33,G,26,0,1,1,0,2,0,0,0,0,1,0,0,0,,1397,53:43,0.0,0.0,3.9,0,0,0,0,
5,Christian Folin,27,D,26,0,2,2,5,16,0,0,0,0,2,0,0,20,0.0,404,15:33,-0.3,1.2,0.9,59,60,1,0,100.0
6,Mark Friedman,23,D,1,0,0,0,-1,0,0,0,0,0,0,0,0,1,0.0,13,12:33,0.0,-0.1,-0.1,0,1,0,0,
7,Claude Giroux,31,C,82,22,63,85,9,24,19,2,1,4,42,21,0,229,9.6,1759,21:27,5.7,2.2,7.9,19,28,674,489,58.0
8,Shayne Gostisbehere,25,D,78,9,28,37,-20,22,5,4,0,2,18,10,0,180,5.0,1533,19:40,2.7,1.5,4.2,102,46,0,0,
9,Tyrell Goulbourne,25,LW,2,0,0,0,0,0,0,0,0,0,0,0,0,3,0.0,15,7:25,0.0,0.0,0.0,0,6,0,0,
10,Radko Gudas,28,D,77,4,16,20,6,63,4,0,0,0,16,0,0,136,2.9,1376,17:53,0.7,3.2,3.9,133,255,0,0,
11,Robert Hagg,23,D,82,5,15,20,-3,63,5,0,0,1,15,0,0,86,5.8,1390,16:57,0.8,2.5,3.3,158,258,0,0,
12,Carter Hart,20,G,31,0,0,0,0,0,0,0,0,0,0,0,0,0,,1717,55:23,0.0,0.0,6.2,0,0,0,0,
13,Ryan Hartman,24,RW,19,2,4,6,-6,30,2,0,0,0,4,0,0,32,6.3,229,12:03,0.2,0.0,0.2,18,38,2,1,66.7
14,Corban Knight,28,C,23,1,3,4,-5,0,1,0,0,0,3,0,0,15,6.7,223,9:41,-0.1,0.0,-0.1,13,9,63,58,52.1
15,Travis Konecny,21,C,82,24,25,49,-4,40,20,4,0,3,21,4,0,182,13.2,1251,15:16,3.8,1.2,4.9,45,65,7,15,31.8
16,Scott Laughton,24,C,82,12,20,32,-11,53,12,0,0,1,18,0,2,130,9.2,1218,14:51,1.0,0.9,1.9,46,146,344,291,54.2
17,Jori Lehtera,31,C,27,1,2,3,-7,33,1,0,0,0,2,0,0,17,5.9,246,9:07,-0.3,0.0,-0.3,7,29,79,67,54.1
18,Oskar Lindblom,22,LW,81,17,16,33,-9,20,15,2,0,2,15,1,0,162,10.5,1113,13:45,1.9,0.8,2.7,52,68,3,7,30.0
19,Alex Lyon,26,G,2,0,0,0,0,0,0,0,0,0,0,0,0,0,,71,35:25,0.0,0.0,-0.2,0,0,0,0,
20,Andrew MacDonald,32,D,47,0,9,9,-5,18,0,0,0,0,7,0,2,41,0.0,771,16:24,0.0,1.2,1.1,95,30,0,0,
21,Mike McKenna,35,G,1,0,0,0,0,0,0,0,0,0,0,0,0,0,,57,56:52,0.0,0.0,-0.1,,0,,,
22,Samuel Morin,23,D,5,0,0,0,-3,4,0,0,0,0,0,0,0,5,0.0,62,12:22,-0.1,-0.1,-0.2,7,9,0,0,
23,Philippe Myers,22,D,21,1,1,2,-5,2,1,0,0,0,1,0,0,25,4.0,323,15:22,-0.1,0.3,0.2,8,42,0,0,
24,Michal Neuvirth,30,G,7,0,0,0,0,0,0,0,0,0,0,0,0,0,,366,52:14,0.0,0.0,0.0,0,0,0,0,
25,Nolan Patrick,20,C,72,13,18,31,-8,27,12,1,0,3,17,1,0,115,11.3,1086,15:05,1.3,0.9,2.2,26,72,399,380,51.2
26,Calvin Pickard,26,G,11,0,0,0,0,2,0,0,0,0,0,0,0,0,,464,42:12,0.0,0.0,0.1,0,0,0,0,
27,Ivan Provorov,22,D,82,7,19,26,-16,32,7,0,0,1,17,2,0,145,4.8,2059,25:07,0.8,2.9,3.7,149,123,0,1,0.0
28,Michael Raffl,30,LW,67,6,12,18,-1,32,5,0,1,1,12,0,0,65,9.2,765,11:25,0.2,0.8,1.0,29,96,14,20,41.2
29,Travis Sanheim,22,D,82,9,26,35,-4,22,7,2,0,2,23,3,0,121,7.4,1604,19:34,2.4,2.9,5.3,133,45,0,0,
30,Wayne Simmonds,30,RW,62,16,11,27,-20,90,11,5,0,2,8,3,0,136,11.8,1026,16:33,1.4,0.3,1.7,21,113,4,12,25.0
31,Anthony Stolarz,25,G,12,0,0,0,0,0,0,0,0,0,0,0,0,0,,630,52:29,0.0,0.0,1.7,0,0,0,0,
32,Cam Talbot,31,G,4,0,0,0,0,0,0,0,0,0,0,0,0,0,,211,52:41,0.0,0.0,0.3,0,0,0,0,
33,James van Riemsdyk,29,LW,66,27,21,48,-10,18,19,8,0,4,16,5,0,167,16.2,1096,16:36,4.4,0.8,5.2,16,34,6,5,54.5
34,Phil Varone,28,C,47,3,4,7,-2,8,3,0,0,0,4,0,0,34,8.8,372,7:55,0.0,0.3,0.3,19,23,81,82,49.7
35,Jakub Voracek,29,RW,78,20,46,66,-16,25,16,4,0,2,32,14,0,210,9.5,1456,18:40,4.5,0.9,5.4,29,17,12,18,40.0
36,Mikhail Vorobyev,22,C,15,1,1,2,0,2,1,0,0,0,1,0,0,10,10.0,140,9:20,-0.1,0.1,0.1,4,4,25,46,35.2
37,Jordan Weal,26,C,28,3,6,9,-5,16,3,0,0,0,4,2,0,33,9.1,391,13:57,0.1,0.2,0.3,8,8,166,112,59.7
38,Dale Weise,30,RW,42,5,6,11,-6,15,4,0,1,1,6,0,0,53,9.4,510,12:08,0.2,0.3,0.5,16,67,2,8,20.0
,Team Total,,,82,241,419,660,-144,715,197,40,4,34,340,75,4,2583,9.3,,,36.5,27.5,76.1,1277,1755,2637,2180,54.7