,,,,Scoring,Scoring,Scoring,Scoring,Scoring,Scoring,Goals,Goals,Goals,Goals,Assists,Assists,Assists,,,Ice Time,Ice Time,Point Shares,Point Shares,Point Shares,,,,,
Rk,Player,Age,Pos,GP,G,A,PTS,+/-,PIM,EV,PP,SH,GW,EV,PP,SH,S,S%,TOI,ATOI,OPS,DPS,PS,BLK,HIT,FOW,FOL,FO%
1,David Pastrnak,23,RW,70,48,47,95,21,40,28,20,0,10,29,18,0,279,17.2,1327,18:58,10.8,2.4,13.2,22,47,7,11,38.9
2,Brad Marchand,31,LW,70,28,59,87,25,82,22,5,1,5,34,23,2,185,15.1,1362,19:27,7.8,2.6,10.4,19,55,22,29,43.1
3,Patrice Bergeron,34,C,61,31,25,56,23,28,19,11,1,5,16,9,0,203,15.3,1143,18:44,5.6,2.3,7.9,46,46,758,553,57.8
4,Torey Krug,28,D,61,9,40,49,-4,33,7,2,0,4,14,26,0,144,6.3,1250,20:29,4.3,2.3,6.7,48,36,0,0,
5,David Krejci,33,C,61,13,30,43,14,23,10,3,0,3,19,11,0,83,15.7,1048,17:10,2.7,1.8,4.5,32,37,370,367,50.2
6,Charlie Coyle,27,C,70,16,21,37,9,21,13,1,2,3,17,4,0,145,11.0,1175,16:47,2.1,1.8,3.8,34,83,326,373,46.6
7,Jake Debrusk,23,LW,65,19,16,35,-1,14,12,7,0,5,13,3,0,161,11.8,1043,16:03,2.6,1.2,3.8,15,35,9,17,34.6
8,Charlie McAvoy,22,D,67,5,27,32,24,41,4,1,0,1,25,1,1,101,5.0,1552,23:10,1.8,5.1,6.9,131,131,0,0,
9,Sean Kuraly,27,C,69,6,17,23,-2,34,6,0,0,0,15,1,1,95,6.3,917,13:17,0.4,1.0,1.4,31,145,254,267,48.8
10,Danton Heinen,24,C,58,7,15,22,3,8,4,3,0,2,12,3,0,90,7.8,822,14:11,0.6,1.1,1.7,32,33,5,7,41.7
11,Matt Grzelcyk,26,D,68,4,17,21,15,34,3,1,0,1,10,6,1,112,3.6,1228,18:04,1.0,3.7,4.7,67,56,0,0,
12,Anders Bjork,23,LW,58,9,10,19,5,10,8,1,0,0,10,0,0,66,13.6,750,12:56,0.7,1.1,1.8,21,43,2,4,33.3
13,Brandon Carlo,23,D,67,4,15,19,16,33,4,0,0,0,15,0,0,111,3.6,1372,20:29,0.6,4.1,4.7,76,126,0,0,
14,Zdeno Chara,42,D,68,5,9,14,26,60,5,0,0,2,9,0,0,86,5.8,1429,21:01,0.1,5.0,5.1,101,78,0,0,
15,Chris Wagner,28,C,67,6,4,10,-8,47,5,0,1,0,4,0,0,78,7.7,834,12:26,-0.7,0.7,0.0,31,192,115,134,46.2
16,Joakim Nordstrom,27,C,48,4,3,7,-6,17,4,0,0,0,3,0,0,49,8.2,581,12:06,-0.5,0.5,0.0,31,91,1,6,14.3
17,Par Lindholm,28,C,40,3,3,6,6,4,3,0,0,1,3,0,0,35,8.6,450,11:15,-0.3,0.8,0.4,26,23,132,156,45.8
18,Brett Ritchie,26,RW,27,2,4,6,-3,21,2,0,0,1,3,1,0,34,5.9,281,10:24,0.0,0.2,0.3,3,89,2,3,40.0
19,Karson Kuhlman,24,C,25,1,5,6,3,13,0,1,0,0,5,0,0,45,2.2,313,12:32,-0.2,0.5,0.3,8,36,1,3,25.0
20,John Moore,29,D,24,2,1,3,-2,11,2,0,0,0,1,0,0,33,6.1,397,16:33,0.0,0.7,0.7,27,36,0,0,
21,David Backes,35,C,16,1,2,3,-2,16,0,1,0,1,2,0,0,26,3.8,137,8:33,0.0,0.1,0.1,4,22,7,10,41.2
22,Connor Clifton,24,D,31,2,0,2,4,12,2,0,0,0,0,0,0,20,10.0,447,14:25,-0.2,1.2,1.1,33,90,0,0,
23,Jeremy Lauzon,22,D,19,1,1,2,5,29,1,0,0,0,1,0,0,20,5.0,293,15:25,-0.1,1.0,0.9,23,32,0,0,
24,Nick Ritchie,24,LW,7,1,1,2,-2,19,1,0,0,0,1,0,0,8,12.5,90,12:49,0.1,0.0,0.1,4,23,0,0,
25,Jaroslav Halak,34,G,31,0,2,2,0,0,0,0,0,0,2,0,0,0,,1833,59:08,0.0,0.0,6.1,0,0,0,0,
26,Steven Kampfer,31,D,10,0,2,2,2,2,0,0,0,0,0,2,0,13,0.0,136,13:38,0.0,0.4,0.5,8,15,0,0,
27,Tuukka Rask,32,G,41,0,2,2,0,0,0,0,0,0,1,1,0,0,,2402,58:35,0.0,0.0,9.1,0,0,0,0,
28,Zachary Senyshyn,22,RW,4,0,2,2,1,0,0,0,0,0,2,0,0,1,0.0,34,8:26,0.1,0.1,0.2,1,2,1,0,100.0
29,Peter Cehlarik,24,LW,3,0,1,1,-1,2,0,0,0,0,1,0,0,0,,34,11:16,0.0,0.0,0.0,2,2,1,1,50.0
30,Brendan Gaunce,25,C,1,0,1,1,1,2,0,0,0,0,1,0,0,0,,9,9:10,0.1,0.0,0.1,0,2,0,1,0.0
31,Ondrej Kase,24,RW,6,0,1,1,0,4,0,0,0,0,1,0,0,9,0.0,87,14:32,-0.1,0.1,0.0,4,4,0,0,
32,Jack Studnicka,20,C,2,0,1,1,2,2,0,0,0,0,1,0,0,3,0.0,24,12:08,0.0,0.1,0.1,0,2,9,6,60.0
33,Anton Blidh,24,LW,7,0,0,0,-1,0,0,0,0,0,0,0,0,9,0.0,81,11:31,-0.2,0.1,-0.2,5,20,0,1,0.0
34,Paul Carey,31,C,1,0,0,0,-1,0,0,0,0,0,0,0,0,0,,6,6:22,0.0,0.0,0.0,1,0,0,0,
35,Trent Frederic,21,C,2,0,0,0,-1,0,0,0,0,0,0,0,0,1,0.0,13,6:26,0.0,0.0,-0.1,0,8,0,0,
36,Cameron Hughes,23,C,1,0,0,0,-1,0,0,0,0,0,0,0,0,0,,10,9:53,0.0,0.0,-0.1,2,1,0,0,
37,Urho Vaakanainen,21,D,5,0,0,0,2,0,0,0,0,0,0,0,0,2,0.0,84,16:51,-0.1,0.3,0.2,3,8,0,0,
,Team Total,,,70,227,384,611,172,662,165,57,5,44,270,109,5,2247,10.1,,,39.1,42.4,96.7,891,1649,2022,1949,50.9