,,,,Scoring,Scoring,Scoring,Scoring,Scoring,Scoring,Goals,Goals,Goals,Goals,Assists,Assists,Assists,,,Ice Time,Ice Time,Point Shares,Point Shares,Point Shares,,,,,
Rk,Player,Age,Pos,GP,G,A,PTS,+/-,PIM,EV,PP,SH,GW,EV,PP,SH,S,S%,TOI,ATOI,OPS,DPS,PS,BLK,HIT,FOW,FOL,FO%
1,Ryan O'Reilly,28,C,71,12,49,61,11,10,9,2,1,3,33,16,0,118,10.2,1461,20:34,3.3,2.1,5.4,42,16,880,676,56.6
2,David Perron,31,LW,71,25,35,60,2,52,16,9,0,9,17,18,0,166,15.1,1300,18:19,5.0,1.6,6.6,19,67,3,5,37.5
3,Brayden Schenn,28,C,71,25,33,58,3,44,15,10,0,4,22,11,0,138,18.1,1311,18:28,4.8,1.6,6.4,21,119,350,364,49.0
4,Jaden Schwartz,27,C,71,22,35,57,3,18,13,9,0,4,24,11,0,162,13.6,1291,18:11,4.4,1.6,6.0,28,60,9,11,45.0
5,Alex Pietrangelo,30,D,70,16,36,52,11,20,10,6,0,3,19,16,1,225,7.1,1693,24:11,4.8,4.3,9.1,89,47,0,0,
6,Robert Thomas,20,C,66,10,32,42,9,18,9,1,0,2,26,6,0,87,11.5,961,14:34,2.6,1.5,4.1,13,13,136,181,42.9
7,Zach Sanford,25,LW,58,16,14,30,13,28,15,1,0,3,14,0,0,90,17.8,797,13:44,2.4,1.4,3.9,32,109,1,8,11.1
8,Tyler Bozak,33,C,67,13,16,29,0,10,10,2,1,2,14,2,0,109,11.9,1026,15:19,1.4,1.2,2.6,33,32,363,297,55.0
9,Colton Parayko,26,D,64,10,18,28,8,16,7,3,0,1,15,2,1,162,6.2,1472,23:00,2.0,3.6,5.7,106,87,0,0,
10,Ivan Barbashev,24,C,69,11,15,26,3,23,9,0,2,2,14,0,1,75,14.7,928,13:27,1.2,1.2,2.4,33,144,149,179,45.4
11,Oskar Sundqvist,25,C,57,12,11,23,5,28,11,0,1,1,10,0,1,97,12.4,820,14:23,1.3,1.1,2.4,26,60,105,132,44.3
12,Vince Dunn,23,D,71,9,14,23,15,27,5,4,0,1,8,6,0,138,6.5,1155,16:16,1.8,3.5,5.3,47,50,0,0,
13,Alex Steen,35,C,55,7,10,17,7,12,7,0,0,0,9,1,0,71,9.9,772,14:02,0.3,1.2,1.4,47,26,8,7,53.3
14,Justin Faulk,27,D,69,5,11,16,-3,32,4,1,0,1,8,2,1,147,3.4,1419,20:34,0.4,2.7,3.0,76,82,0,0,
15,Sammy Blais,23,LW,40,6,7,13,-2,20,6,0,0,1,7,0,0,56,10.7,503,12:35,0.5,0.5,1.0,15,155,0,0,
16,Mackenzie MacEachern,25,LW,51,7,3,10,2,33,7,0,0,2,3,0,0,63,11.1,457,8:57,0.4,0.6,1.1,13,82,1,3,25.0
17,Vladimir Tarasenko,28,RW,10,3,7,10,-2,0,2,1,0,0,5,2,0,26,11.5,162,16:11,0.9,0.1,1.0,7,17,0,0,
18,Jordan Kyrou,21,C,28,4,5,9,1,8,4,0,0,0,4,1,0,39,10.3,305,10:54,0.5,0.4,0.9,8,8,2,3,40.0
19,Jay Bouwmeester,36,D,56,1,8,9,6,20,1,0,0,0,7,0,1,53,1.9,1208,21:34,-0.5,2.9,2.4,68,42,0,0,
20,Carl Gunnarsson,33,D,36,2,5,7,8,16,2,0,0,0,4,0,1,31,6.5,568,15:47,0.2,1.8,2.0,51,27,0,0,
21,Robert Bortuzzo,30,D,42,2,4,6,12,21,2,0,0,1,4,0,0,36,5.6,551,13:07,0.1,2.0,2.2,43,66,0,0,
22,Jacob de La Rose,24,LW,34,1,4,5,-1,6,1,0,0,0,4,0,0,31,3.2,341,10:01,-0.3,0.4,0.0,7,88,63,80,44.1
23,Nathan Walker,25,C,5,1,1,2,-2,4,1,0,0,0,1,0,0,6,16.7,56,11:08,0.1,0.0,0.1,1,10,1,0,100.0
24,Troy Brouwer,34,RW,13,1,0,1,1,7,1,0,0,0,0,0,0,12,8.3,123,9:28,-0.1,0.2,0.0,6,24,1,1,50.0
25,Robby Fabbri,24,C,9,1,0,1,-4,2,1,0,0,0,0,0,0,7,14.3,87,9:42,0.0,-0.1,-0.1,1,12,1,0,100.0
26,Klim Kostin,20,C; LW,4,1,0,1,1,0,1,0,0,0,0,0,0,5,20.0,34,8:32,0.1,0.1,0.2,0,6,0,0,
27,Jordan Binnington,26,G,50,0,1,1,0,4,0,0,0,0,1,0,0,0,,2948,58:57,0.0,0.0,8.4,0,0,0,0,
28,Niko Mikkola,23,D,5,0,1,1,3,0,0,0,0,0,1,0,0,10,0.0,72,14:22,0.0,0.4,0.4,3,5,0,0,
29,Marco Scandella,29,D,11,0,1,1,4,4,0,0,0,0,1,0,0,17,0.0,223,20:18,-0.2,0.8,0.6,7,15,0,0,
30,Jake Allen,29,G,24,0,0,0,0,0,0,0,0,0,0,0,0,0,,1339,55:48,0.0,0.0,4.9,0,0,0,0,
31,Austin Poganski,23,RW,1,0,0,0,0,0,0,0,0,0,0,0,0,0,,6,5:54,0.0,0.0,0.0,0,0,0,0,
32,Derrick Pouliot,26,D,2,0,0,0,-1,2,0,0,0,0,0,0,0,1,0.0,17,8:20,0.0,0.0,-0.1,1,2,0,0,
33,Jake Walman,23,D,1,0,0,0,1,0,0,0,0,0,0,0,0,1,0.0,11,11:04,0.0,0.1,0.1,1,0,0,0,
,Team Total,,,71,223,376,599,114,485,169,49,5,40,275,94,7,2179,10.2,,,37.2,38.8,89.4,844,1471,2073,1947,51.6